{
  "disabled" : false,
  "bindings" : [
    {
      "authLevel" : "function",
      "type" : "httpTrigger",
      "direction" : "in",
      "name" : "req"
    },
    {
      "type" : "http",
      "direction" : "out",
      "name" : "res"
    }
  ]
}
